monitor/tests/wishbone/reqwalker.vcd
$version Generated by VerilatedVcd $end
$timescale 1ps $end
 $scope module TOP $end
  $var wire 1 # i_clk $end
  $var wire 1 $ i_cyc $end
  $var wire 1 % i_stb $end
  $var wire 1 & i_we $end
  $var wire 1 ' i_addr $end
  $var wire 32 ( i_data [31:0] $end
  $var wire 1 ) o_stall $end
  $var wire 1 * o_ack $end
  $var wire 32 + o_data [31:0] $end
  $var wire 6 , o_led [5:0] $end
  $scope module reqwalker $end
   $var wire 1 # i_clk $end
   $var wire 1 $ i_cyc $end
   $var wire 1 % i_stb $end
   $var wire 1 & i_we $end
   $var wire 1 ' i_addr $end
   $var wire 32 ( i_data [31:0] $end
   $var wire 1 ) o_stall $end
   $var wire 1 * o_ack $end
   $var wire 32 + o_data [31:0] $end
   $var wire 6 , o_led [5:0] $end
   $var wire 1 - busy $end
   $var wire 4 . state [3:0] $end
   $var wire 34 / unused [33:0] $end
  $upscope $end
 $upscope $end
$enddefinitions $end


#8
0#
1$
1%
0&
0'
b00000000000000000000000000000000 (
0)
0*
b00000000000000000000000000000000 +
b000000 ,
0-
b0000 .
b1000000000000000000000000000000000 /
#10
1#
1*
#15
0#
#18
0$
0%
b0000000000000000000000000000000000 /
#20
1#
0*
#25
0#
#30
1#
#35
0#
#40
1#
#45
0#
#50
1#
#55
0#
#60
1#
#65
0#
#68
1$
1%
1&
b1000000000000000000000000000000000 /
#70
1#
1)
1*
b00000000000000000000000000000001 +
1-
b0001 .
#75
0#
#78
0$
0%
b0000000000000000000000000000000000 /
#80
1#
0*
b00000000000000000000000000000010 +
b000001 ,
b0010 .
#85
0#
#88
1$
1%
0&
0)
b1000000000000000000000000000000000 /
#90
1#
1*
b00000000000000000000000000000011 +
b000010 ,
b0011 .
#95
0#
#98
0$
0%
b0000000000000000000000000000000000 /
#100
1#
0*
b00000000000000000000000000000100 +
b000100 ,
b0100 .
#105
0#
#108
1$
1%
b1000000000000000000000000000000000 /
#110
1#
1*
b00000000000000000000000000000101 +
b001000 ,
b0101 .
#115
0#
#118
0$
0%
b0000000000000000000000000000000000 /
#120
1#
0*
b00000000000000000000000000000110 +
b010000 ,
b0110 .
#125
0#
#128
1$
1%
b1000000000000000000000000000000000 /
#130
1#
1*
b00000000000000000000000000000111 +
b100000 ,
b0111 .
#135
0#
#138
0$
0%
b0000000000000000000000000000000000 /
#140
1#
0*
b00000000000000000000000000001000 +
b010000 ,
b1000 .
#145
0#
#148
1$
1%
b1000000000000000000000000000000000 /
#150
1#
1*
b00000000000000000000000000001001 +
b001000 ,
b1001 .
#155
0#
#158
0$
0%
b0000000000000000000000000000000000 /
#160
1#
0*
b00000000000000000000000000001010 +
b000100 ,
b1010 .
#165
0#
#168
1$
1%
b1000000000000000000000000000000000 /
#170
1#
1*
b00000000000000000000000000001011 +
b000010 ,
b1011 .
#175
0#
#178
0$
0%
b0000000000000000000000000000000000 /
#180
1#
0*
b00000000000000000000000000000000 +
b000001 ,
0-
b0000 .
#185
0#
#188
1$
1%
b1000000000000000000000000000000000 /
#190
1#
1*
b000000 ,
#195
0#
#198
0$
0%
b0000000000000000000000000000000000 /
#200
1#
0*
#205
0#
#210
1#
#215
0#
#220
1#
#225
0#
#230
1#
#235
0#
#240
1#
#245
0#
#248
1$
1%
1&
b1000000000000000000000000000000000 /
#250
1#
1)
1*
b00000000000000000000000000000001 +
1-
b0001 .
#255
0#
#258
0$
0%
b0000000000000000000000000000000000 /
#260
1#
0*
b00000000000000000000000000000010 +
b000001 ,
b0010 .
#265
0#
#268
1$
1%
0&
0)
b1000000000000000000000000000000000 /
#270
1#
1*
b00000000000000000000000000000011 +
b000010 ,
b0011 .
#275
0#
#278
0$
0%
b0000000000000000000000000000000000 /
#280
1#
0*
b00000000000000000000000000000100 +
b000100 ,
b0100 .
#285
0#
#288
1$
1%
b1000000000000000000000000000000000 /
#290
1#
1*
b00000000000000000000000000000101 +
b001000 ,
b0101 .
#295
0#
#298
0$
0%
b0000000000000000000000000000000000 /
#300
1#
0*
b00000000000000000000000000000110 +
b010000 ,
b0110 .
#305
0#
#308
1$
1%
b1000000000000000000000000000000000 /
#310
1#
1*
b00000000000000000000000000000111 +
b100000 ,
b0111 .
#315
0#
#318
0$
0%
b0000000000000000000000000000000000 /
#320
1#
0*
b00000000000000000000000000001000 +
b010000 ,
b1000 .
#325
0#
#328
1$
1%
b1000000000000000000000000000000000 /
#330
1#
1*
b00000000000000000000000000001001 +
b001000 ,
b1001 .
#335
0#
#338
0$
0%
b0000000000000000000000000000000000 /
#340
1#
0*
b00000000000000000000000000001010 +
b000100 ,
b1010 .
#345
0#
#348
1$
1%
b1000000000000000000000000000000000 /
#350
1#
1*
b00000000000000000000000000001011 +
b000010 ,
b1011 .
#355
0#
#358
0$
0%
b0000000000000000000000000000000000 /
#360
1#
0*
b00000000000000000000000000000000 +
b000001 ,
0-
b0000 .
#365
0#
#368
1$
1%
b1000000000000000000000000000000000 /
#370
1#
1*
b000000 ,
